Comparación de dos medias: Prueba de de Student
…
# A tibble: 2 x 4
  Type1 variable  statistic            p
  <chr> <chr>         <dbl>        <dbl>
1 Grass weight_kg     0.711 0.0000000429
2 Rock  weight_kg     0.758 0.0000871   

La prueba de Shapiro-Wilk nos confirma que ambos grupos no vienen de una distribución normal.En este caso, es posible hacer una transformación de los datos, para lo cual vamos a generar una columna columna con el logaritmo del peso

poke_test$log_weight <- log(poke_test$weight_kg)
poke_test

# A tibble: 72 x 3
   Type1 weight_kg log_weight
   <chr>     <dbl>      <dbl>
 1 Grass       6.9       1.93
 2 Grass      13         2.56
 3 Grass     100         4.61
 4 Grass       5.4       1.69
 5 Grass       8.6       2.15
 6 Grass      18.6       2.92
 7 Grass       4         1.39
 8 Grass       6.4       1.86
 9 Grass      15.5       2.74
10 Rock       NA        NA   
# ... with 62 more rows
…
