Clase 4: Dplyr y Tidyverse
…
Attack: the base modifier for normal attacks (eg. Scratch, Punch)

Defense: the base damage resistance against normal attacks

SP Atk: special attack, the base modifier for special attacks (e.g. fire blast, bubble beam)

SP Def: the base damage resistance against special attacks

Speed: determines which pokemon attacks first each round

pokemon <- read_excel("data/datasets_Pokemon.xls", sheet = "pokemon")
pokemon

# A tibble: 800 x 13
      ID Name         Type1 Type2 Total    HP Attack Defense Sp_Atk Sp_Def Speed
   <dbl> <chr>        <chr> <chr> <dbl> <dbl>  <dbl>   <dbl>  <dbl>  <dbl> <dbl>
 1     1 Bulbasaur    Grass Pois~   318    45     49      49     65     65    45
 2     2 Ivysaur      Grass Pois~   405    60     62      63     80     80    60
 3     3 Venusaur     Grass Pois~   525    80     82      83    100    100    80
 4     3 VenusaurMeg~ Grass Pois~   625    80    100     123    122    120    80
 5     4 Charmander   Fire  <NA>    309    39     52      43     60     50    65
 6     5 Charmeleon   Fire  <NA>    405    58     64      58     80     65    80
 7     6 Charizard    Fire  Flyi~   534    78     84      78    109     85   100
 8     6 CharizardMe~ Fire  Drag~   634    78    130     111    130     85   100
 9     6 CharizardMe~ Fire  Flyi~   634    78    104      78    159    115   100
10     7 Squirtle     Water <NA>    314    44     48      65     50     64    43
# ... with 790 more rows, and 2 more variables: Generation <dbl>,
#   Legendary <lgl>
…
El primer argumento siempre es un tibble o data.frame

El resto de los argumentos indican los parametros de lo que queremos hacer

El resultado siempre tiene tambien estructura de tibble o data frame

3.1 select()

Permite seleccionar una o un set de varias columnas

Por ejemplo: seleccionar las columnas Name y Attack

select(pokemon, Name, Attack)

# A tibble: 800 x 2
   Name                      Attack
   <chr>                      <dbl>
 1 Bulbasaur                     49
 2 Ivysaur                       62
 3 Venusaur                      82
 4 VenusaurMega Venusaur        100
 5 Charmander                    52
 6 Charmeleon                    64
 7 Charizard                     84
 8 CharizardMega Charizard X    130
 9 CharizardMega Charizard Y    104
10 Squirtle                      48
# ... with 790 more rows

Al igual que en ejemplo anteriores, podemos seleccionar todo excepto una clumna especifica usando el operador “-” (resta)

select(pokemon, -Attack)

# A tibble: 800 x 12
      ID Name     Type1 Type2 Total    HP Defense Sp_Atk Sp_Def Speed Generation
   <dbl> <chr>    <chr> <chr> <dbl> <dbl>   <dbl>  <dbl>  <dbl> <dbl>      <dbl>
 1     1 Bulbasa~ Grass Pois~   318    45      49     65     65    45          1
 2     2 Ivysaur  Grass Pois~   405    60      63     80     80    60          1
 3     3 Venusaur Grass Pois~   525    80      83    100    100    80          1
 4     3 Venusau~ Grass Pois~   625    80     123    122    120    80          1
 5     4 Charman~ Fire  <NA>    309    39      43     60     50    65          1
 6     5 Charmel~ Fire  <NA>    405    58      58     80     65    80          1
 7     6 Chariza~ Fire  Flyi~   534    78      78    109     85   100          1
 8     6 Chariza~ Fire  Drag~   634    78     111    130     85   100          1
 9     6 Chariza~ Fire  Flyi~   634    78      78    159    115   100          1
10     7 Squirtle Water <NA>    314    44      65     50     64    43          1
# ... with 790 more rows, and 1 more variable: Legendary <lgl>

Para seleccionar un intervalo de columnas, se puede usar el operador :

select(pokemon, Name, Type1:HP)

# A tibble: 800 x 5
   Name                      Type1 Type2  Total    HP
   <chr>                     <chr> <chr>  <dbl> <dbl>
 1 Bulbasaur                 Grass Poison   318    45
 2 Ivysaur                   Grass Poison   405    60
 3 Venusaur                  Grass Poison   525    80
 4 VenusaurMega Venusaur     Grass Poison   625    80
 5 Charmander                Fire  <NA>     309    39
 6 Charmeleon                Fire  <NA>     405    58
 7 Charizard                 Fire  Flying   534    78
 8 CharizardMega Charizard X Fire  Dragon   634    78
 9 CharizardMega Charizard Y Fire  Flying   634    78
10 Squirtle                  Water <NA>     314    44
# ... with 790 more rows

De igual manera, se puede usar el operados : para descartar un intervalo de columnas

select(pokemon, -(Defense:Legendary))

# A tibble: 800 x 7
      ID Name                      Type1 Type2  Total    HP Attack
   <dbl> <chr>                     <chr> <chr>  <dbl> <dbl>  <dbl>
 1     1 Bulbasaur                 Grass Poison   318    45     49
 2     2 Ivysaur                   Grass Poison   405    60     62
 3     3 Venusaur                  Grass Poison   525    80     82
 4     3 VenusaurMega Venusaur     Grass Poison   625    80    100
 5     4 Charmander                Fire  <NA>     309    39     52
 6     5 Charmeleon                Fire  <NA>     405    58     64
 7     6 Charizard                 Fire  Flying   534    78     84
 8     6 CharizardMega Charizard X Fire  Dragon   634    78    130
 9     6 CharizardMega Charizard Y Fire  Flying   634    78    104
10     7 Squirtle                  Water <NA>     314    44     48
# ... with 790 more rows

Se puede seleccionar las columnas que empiezar con un determinado caracter con la función starts_with(); por ejemplo, si queremos enfocarnos a las columnas con del tipoe (Type):

select(pokemon, Name, starts_with("Type"))

# A tibble: 800 x 3
   Name                      Type1 Type2 
   <chr>                     <chr> <chr> 
 1 Bulbasaur                 Grass Poison
 2 Ivysaur                   Grass Poison
 3 Venusaur                  Grass Poison
 4 VenusaurMega Venusaur     Grass Poison
 5 Charmander                Fire  <NA>  
 6 Charmeleon                Fire  <NA>  
 7 Charizard                 Fire  Flying
 8 CharizardMega Charizard X Fire  Dragon
 9 CharizardMega Charizard Y Fire  Flying
10 Squirtle                  Water <NA>  
# ... with 790 more rows

Algunos operadores que funcionan de manera similar son:

ends_with() = Selecciona las columnas que terminan con una cadena de caracteres

contains() = Selecciona las columnas que contienen una cadena de caracteres.

select(pokemon, Name, contains("Sp_"))

# A tibble: 800 x 3
   Name                      Sp_Atk Sp_Def
   <chr>                      <dbl>  <dbl>
 1 Bulbasaur                     65     65
 2 Ivysaur                       80     80
 3 Venusaur                     100    100
 4 VenusaurMega Venusaur        122    120
 5 Charmander                    60     50
 6 Charmeleon                    80     65
 7 Charizard                    109     85
 8 CharizardMega Charizard X    130     85
 9 CharizardMega Charizard Y    159    115
10 Squirtle                      50     64
# ... with 790 more rows

Con la función evrything() se puede seleccionar todo, y con esto es factible cambiar el order de las columnas. Por ejemplo, si quieremos que la primera columna sea “Type1” ejecutamos:

select(pokemon, Type1, everything())

# A tibble: 800 x 13
   Type1    ID Name         Type2 Total    HP Attack Defense Sp_Atk Sp_Def Speed
   <chr> <dbl> <chr>        <chr> <dbl> <dbl>  <dbl>   <dbl>  <dbl>  <dbl> <dbl>
 1 Grass     1 Bulbasaur    Pois~   318    45     49      49     65     65    45
 2 Grass     2 Ivysaur      Pois~   405    60     62      63     80     80    60
 3 Grass     3 Venusaur     Pois~   525    80     82      83    100    100    80
 4 Grass     3 VenusaurMeg~ Pois~   625    80    100     123    122    120    80
 5 Fire      4 Charmander   <NA>    309    39     52      43     60     50    65
 6 Fire      5 Charmeleon   <NA>    405    58     64      58     80     65    80
 7 Fire      6 Charizard    Flyi~   534    78     84      78    109     85   100
 8 Fire      6 CharizardMe~ Drag~   634    78    130     111    130     85   100
 9 Fire      6 CharizardMe~ Flyi~   634    78    104      78    159    115   100
10 Water     7 Squirtle     <NA>    314    44     48      65     50     64    43
# ... with 790 more rows, and 2 more variables: Generation <dbl>,
#   Legendary <lgl>

3.2 filter()

Esta función nos permite seleccionar las filas que cumplan con las condiciones que especifiquemos

Por ejemplo, filtrar los pokemon con un nivel de ataque Attack superior a 100

filter(pokemon, Attack > 100)

# A tibble: 170 x 13
      ID Name        Type1  Type2 Total    HP Attack Defense Sp_Atk Sp_Def Speed
   <dbl> <chr>       <chr>  <chr> <dbl> <dbl>  <dbl>   <dbl>  <dbl>  <dbl> <dbl>
 1     6 CharizardM~ Fire   Drag~   634    78    130     111    130     85   100
 2     6 CharizardM~ Fire   Flyi~   634    78    104      78    159    115   100
 3     9 BlastoiseM~ Water  <NA>    630    79    103     120    135    115    78
 4    15 BeedrillMe~ Bug    Pois~   495    65    150      40     15     80   145
 5    34 Nidoking    Poison Grou~   505    81    102      77     85     75    85
 6    57 Primeape    Fight~ <NA>    455    65    105      60     60     70    95
 7    59 Arcanine    Fire   <NA>    555    90    110      80    100     80    95
 8    68 Machamp     Fight~ <NA>    505    90    130      80     65     85    55
 9    71 Victreebel  Grass  Pois~   490    80    105      65    100     70    70
10    76 Golem       Rock   Grou~   495    80    120     130     55     65    45
# ... with 160 more rows, and 2 more variables: Generation <dbl>,
#   Legendary <lgl>
…
# A tibble: 4 x 13
     ID Name          Type1 Type2 Total    HP Attack Defense Sp_Atk Sp_Def Speed
  <dbl> <chr>         <chr> <chr> <dbl> <dbl>  <dbl>   <dbl>  <dbl>  <dbl> <dbl>
1     6 CharizardMeg~ Fire  Drag~   634    78    130     111    130     85   100
2     6 CharizardMeg~ Fire  Flyi~   634    78    104      78    159    115   100
3    59 Arcanine      Fire  <NA>    555    90    110      80    100     80    95
4   136 Flareon       Fire  <NA>    525    65    130      60     95    110    65
# ... with 2 more variables: Generation <dbl>, Legendary <lgl>

Ahora queremos filtrar los pokemon que tengan un nivel de ataque mayor a 100 o que sean de tipo fuego

filter(pokemon, Attack > 100 | Type1 == "Fire")

# A tibble: 209 x 13
      ID Name         Type1 Type2 Total    HP Attack Defense Sp_Atk Sp_Def Speed
   <dbl> <chr>        <chr> <chr> <dbl> <dbl>  <dbl>   <dbl>  <dbl>  <dbl> <dbl>
 1     4 Charmander   Fire  <NA>    309    39     52      43     60     50    65
 2     5 Charmeleon   Fire  <NA>    405    58     64      58     80     65    80
 3     6 Charizard    Fire  Flyi~   534    78     84      78    109     85   100
 4     6 CharizardMe~ Fire  Drag~   634    78    130     111    130     85   100
 5     6 CharizardMe~ Fire  Flyi~   634    78    104      78    159    115   100
 6     9 BlastoiseMe~ Water <NA>    630    79    103     120    135    115    78
 7    15 BeedrillMeg~ Bug   Pois~   495    65    150      40     15     80   145
 8    34 Nidoking     Pois~ Grou~   505    81    102      77     85     75    85
 9    37 Vulpix       Fire  <NA>    299    38     41      40     50     65    65
10    38 Ninetales    Fire  <NA>    505    73     76      75     81    100   100
# ... with 199 more rows, and 2 more variables: Generation <dbl>,
#   Legendary <lgl>

Si queremos filtrar distintas condiciones en una misma variable podemos usar el operador %in% por ejemplo para filtrar lo pokemons que sea de tipo1 de Fuego y Agua

filter(pokemon, Type1 %in% c("Fire", "Water"))

# A tibble: 164 x 13
      ID Name         Type1 Type2 Total    HP Attack Defense Sp_Atk Sp_Def Speed
   <dbl> <chr>        <chr> <chr> <dbl> <dbl>  <dbl>   <dbl>  <dbl>  <dbl> <dbl>
 1     4 Charmander   Fire  <NA>    309    39     52      43     60     50    65
 2     5 Charmeleon   Fire  <NA>    405    58     64      58     80     65    80
 3     6 Charizard    Fire  Flyi~   534    78     84      78    109     85   100
 4     6 CharizardMe~ Fire  Drag~   634    78    130     111    130     85   100
 5     6 CharizardMe~ Fire  Flyi~   634    78    104      78    159    115   100
 6     7 Squirtle     Water <NA>    314    44     48      65     50     64    43
 7     8 Wartortle    Water <NA>    405    59     63      80     65     80    58
 8     9 Blastoise    Water <NA>    530    79     83     100     85    105    78
 9     9 BlastoiseMe~ Water <NA>    630    79    103     120    135    115    78
10    37 Vulpix       Fire  <NA>    299    38     41      40     50     65    65
# ... with 154 more rows, and 2 more variables: Generation <dbl>,
#   Legendary <lgl>

Es posible filtrar un intervalo de valores utilizando el argumento between(). Por ejemplo, para filtrar los pokemon que tengan un nivel de ataque mayor a 100 pero menor a 150

  filter(pokemon, 
         between(Attack,100,150))

# A tibble: 192 x 13
      ID Name        Type1  Type2 Total    HP Attack Defense Sp_Atk Sp_Def Speed
   <dbl> <chr>       <chr>  <chr> <dbl> <dbl>  <dbl>   <dbl>  <dbl>  <dbl> <dbl>
 1     3 VenusaurMe~ Grass  Pois~   625    80    100     123    122    120    80
 2     6 CharizardM~ Fire   Drag~   634    78    130     111    130     85   100
 3     6 CharizardM~ Fire   Flyi~   634    78    104      78    159    115   100
 4     9 BlastoiseM~ Water  <NA>    630    79    103     120    135    115    78
 5    15 BeedrillMe~ Bug    Pois~   495    65    150      40     15     80   145
 6    28 Sandslash   Ground <NA>    450    75    100     110     45     55    65
 7    34 Nidoking    Poison Grou~   505    81    102      77     85     75    85
 8    57 Primeape    Fight~ <NA>    455    65    105      60     60     70    95
 9    59 Arcanine    Fire   <NA>    555    90    110      80    100     80    95
10    67 Machoke     Fight~ <NA>    405    80    100      70     50     60    45
# ... with 182 more rows, and 2 more variables: Generation <dbl>,
#   Legendary <lgl>

para hacer la selección opuesta, se puede agregar el operador !

filter(pokemon, !between(Attack, 100, 150))

# A tibble: 608 x 13
      ID Name       Type1 Type2  Total    HP Attack Defense Sp_Atk Sp_Def Speed
   <dbl> <chr>      <chr> <chr>  <dbl> <dbl>  <dbl>   <dbl>  <dbl>  <dbl> <dbl>
 1     1 Bulbasaur  Grass Poison   318    45     49      49     65     65    45
 2     2 Ivysaur    Grass Poison   405    60     62      63     80     80    60
 3     3 Venusaur   Grass Poison   525    80     82      83    100    100    80
 4     4 Charmander Fire  <NA>     309    39     52      43     60     50    65
 5     5 Charmeleon Fire  <NA>     405    58     64      58     80     65    80
 6     6 Charizard  Fire  Flying   534    78     84      78    109     85   100
 7     7 Squirtle   Water <NA>     314    44     48      65     50     64    43
 8     8 Wartortle  Water <NA>     405    59     63      80     65     80    58
 9     9 Blastoise  Water <NA>     530    79     83     100     85    105    78
10    10 Caterpie   Bug   <NA>     195    45     30      35     20     20    45
# ... with 598 more rows, and 2 more variables: Generation <dbl>,
#   Legendary <lgl>

filter(pokemon, 
       between(Attack, 0, 50),
       between(Speed, 20, 30))

# A tibble: 30 x 13
      ID Name       Type1  Type2  Total    HP Attack Defense Sp_Atk Sp_Def Speed
   <dbl> <chr>      <chr>  <chr>  <dbl> <dbl>  <dbl>   <dbl>  <dbl>  <dbl> <dbl>
 1    11 Metapod    Bug    <NA>     205    50     20      55     25     25    30
 2    39 Jigglypuff Normal Fairy    270   115     45      20     45     25    20
 3    43 Oddish     Grass  Poison   320    45     50      55     75     65    30
 4   161 Sentret    Normal <NA>     215    35     46      34     35     45    20
 5   175 Togepi     Fairy  <NA>     245    35     20      65     40     65    20
 6   191 Sunkern    Grass  <NA>     180    30     30      30     30     30    30
 7   218 Slugma     Fire   <NA>     250    40     40      40     70     40    20
 8   219 Magcargo   Fire   Rock     410    50     50     120     80     80    30
 9   265 Wurmple    Bug    <NA>     195    45     45      35     20     30    20
10   270 Lotad      Water  Grass    220    40     30      30     40     50    30
# ... with 20 more rows, and 2 more variables: Generation <dbl>,
#   Legendary <lgl>
…
La función mutate nos permite crear nuevas variables que contengan cálculos a partir de las que ya tenemos, añadir una nueva variable o transformar una variable ya existente

Por ejemplo, podemos generar una nueva columna llamada “At_Df_ratio” con la propoción de los valors de Ataque sobre Defensa

mutate(pokemon, At_df_ratio = Attack / Defense)

# A tibble: 800 x 14
      ID Name         Type1 Type2 Total    HP Attack Defense Sp_Atk Sp_Def Speed
   <dbl> <chr>        <chr> <chr> <dbl> <dbl>  <dbl>   <dbl>  <dbl>  <dbl> <dbl>
 1     1 Bulbasaur    Grass Pois~   318    45     49      49     65     65    45
 2     2 Ivysaur      Grass Pois~   405    60     62      63     80     80    60
 3     3 Venusaur     Grass Pois~   525    80     82      83    100    100    80
 4     3 VenusaurMeg~ Grass Pois~   625    80    100     123    122    120    80
 5     4 Charmander   Fire  <NA>    309    39     52      43     60     50    65
 6     5 Charmeleon   Fire  <NA>    405    58     64      58     80     65    80
 7     6 Charizard    Fire  Flyi~   534    78     84      78    109     85   100
 8     6 CharizardMe~ Fire  Drag~   634    78    130     111    130     85   100
 9     6 CharizardMe~ Fire  Flyi~   634    78    104      78    159    115   100
10     7 Squirtle     Water <NA>    314    44     48      65     50     64    43
# ... with 790 more rows, and 3 more variables: Generation <dbl>,
#   Legendary <lgl>, At_df_ratio <dbl>

De igual manera se pueden generar diversas nuevas columnas, separadas por comas.

mutate(pokemon, At_df_ratio = Attack / Defense,
       
       #En porcentage
       At_df_per = At_df_ratio * 100,
       
       #Añadir una nueva columna con el nombre de los datos
       data = "Pokemon")

# A tibble: 800 x 16
      ID Name         Type1 Type2 Total    HP Attack Defense Sp_Atk Sp_Def Speed
   <dbl> <chr>        <chr> <chr> <dbl> <dbl>  <dbl>   <dbl>  <dbl>  <dbl> <dbl>
 1     1 Bulbasaur    Grass Pois~   318    45     49      49     65     65    45
 2     2 Ivysaur      Grass Pois~   405    60     62      63     80     80    60
 3     3 Venusaur     Grass Pois~   525    80     82      83    100    100    80
 4     3 VenusaurMeg~ Grass Pois~   625    80    100     123    122    120    80
 5     4 Charmander   Fire  <NA>    309    39     52      43     60     50    65
 6     5 Charmeleon   Fire  <NA>    405    58     64      58     80     65    80
 7     6 Charizard    Fire  Flyi~   534    78     84      78    109     85   100
 8     6 CharizardMe~ Fire  Drag~   634    78    130     111    130     85   100
 9     6 CharizardMe~ Fire  Flyi~   634    78    104      78    159    115   100
10     7 Squirtle     Water <NA>    314    44     48      65     50     64    43
# ... with 790 more rows, and 5 more variables: Generation <dbl>,
#   Legendary <lgl>, At_df_ratio <dbl>, At_df_per <dbl>, data <chr>
…
